{
  "page": 1,
  "total_results": 10000,
  "total_pages": 500,
  "results": [
    {
      "popularity": 398.339,
      "vote_count": 3584,
      "video": false,
      "poster_path": "/xBHvZcjRiWyobQ9kxBhO6B2dtRI.jpg",
      "id": 419704,
      "adult": false,
      "backdrop_path": "/5BwqwxMEjeFtdknRV792Svo0K1v.jpg",
      "original_language": "en",
      "original_title": "Ad Astra",
      "genre_ids": [
        18,
        878
      ],
      "title": "Ad Astra",
      "vote_average": 6,
      "overview": "The near future, a time when both hope and hardships drive humanity to look to the stars and beyond. While a mysterious phenomenon menaces to destroy life on planet Earth, astronaut Roy McBride undertakes a mission across the immensity of space and its many perils to uncover the truth about a lost expedition that decades before boldly faced emptiness and silence in search of the unknown.",
      "release_date": "2019-09-17"
    },
    {
      "popularity": 126.062,
      "vote_count": 2497,
      "video": false,
      "poster_path": "/8WUVHemHFH2ZIP6NWkwlHWsyrEL.jpg",
      "id": 338762,
      "adult": false,
      "backdrop_path": "/ocUrMYbdjknu2TwzMHKT9PBBQRw.jpg",
      "original_language": "en",
      "original_title": "Bloodshot",
      "genre_ids": [
        28,
        878
      ],
      "title": "Bloodshot",
      "vote_average": 7,
      "overview": "After he and his wife are murdered, marine Ray Garrison is resurrected by a team of scientists. Enhanced with nanotechnology, he becomes a superhuman, biotech killing machine—'Bloodshot'. As Ray first trains with fellow super-soldiers, he cannot recall anything from his former life. But when his memories flood back and he remembers the man that killed both him and his wife, he breaks out of the facility to get revenge, only to discover that there's more to the conspiracy than he thought.",
      "release_date": "2020-03-05"
    },
    {
      "popularity": 123.863,
      "vote_count": 766,
      "video": false,
      "poster_path": "/wxPhn4ef1EAo5njxwBkAEVrlJJG.jpg",
      "id": 514847,
      "adult": false,
      "backdrop_path": "/qfQ78ZKiouoM2yhAnfNblp9ijQE.jpg",
      "original_language": "en",
      "original_title": "The Hunt",
      "genre_ids": [
        28,
        27,
        53
      ],
      "title": "The Hunt",
      "vote_average": 6.7,
      "overview": "Twelve strangers wake up in a clearing. They don't know where they are—or how they got there. In the shadow of a dark internet conspiracy theory, ruthless elitists gather at a remote location to hunt humans for sport. But their master plan is about to be derailed when one of the hunted turns the tables on her pursuers.",
      "release_date": "2020-03-11"
    },
    {
      "popularity": 214.551,
      "vote_count": 22,
      "video": false,
      "poster_path": "/avl9MEQhtvokNnzoWepkmHBZ2ss.jpg",
      "id": 574982,
      "adult": false,
      "backdrop_path": "/4phMeITqEnShF5C3ZD0Q8YQFMAB.jpg",
      "original_language": "ru",
      "original_title": "The Blackout",
      "genre_ids": [
        28,
        878,
        53
      ],
      "title": "The Blackout: Invasion Earth",
      "vote_average": 6.6,
      "overview": "No meteorites hit Earth, no terrorists put the world in danger, no atomic war was started, but something did go wrong. Contact between most towns on Earth has been severed. A small ring-like area in Eastern Europe still has electricity, and maybe even life is being reported from the Space. What military forces find outside the Ring is shocking. There are dead corpses everywhere: in stores, in cars, on roads, in hospitals and railway stations. Who or what is destroying all life on Earth? How long will the last outpost of mankind survive?",
      "release_date": "2019-11-21"
    },
    {
      "popularity": 97.946,
      "vote_count": 4361,
      "video": false,
      "poster_path": "/aQvJ5WPzZgYVDrxLX4R6cLJCEaQ.jpg",
      "id": 454626,
      "adult": false,
      "backdrop_path": "/ibMSQUtltvnmsOSrCsBrDNThzCu.jpg",
      "original_language": "en",
      "original_title": "Sonic the Hedgehog",
      "genre_ids": [
        28,
        35,
        878,
        10751
      ],
      "title": "Sonic the Hedgehog",
      "vote_average": 7.5,
      "overview": "Based on the global blockbuster videogame franchise from Sega, Sonic the Hedgehog tells the story of the world’s speediest hedgehog as he embraces his new home on Earth. In this live-action adventure comedy, Sonic and his new best friend team up to defend the planet from the evil genius Dr. Robotnik and his plans for world domination.",
      "release_date": "2020-02-12"
    },
    {
      "popularity": 91.558,
      "vote_count": 867,
      "video": false,
      "poster_path": "/jHo2M1OiH9Re33jYtUQdfzPeUkx.jpg",
      "id": 385103,
      "adult": false,
      "backdrop_path": "/fKtYXUhX5fxMxzQfyUcQW9Shik6.jpg",
      "original_language": "en",
      "original_title": "Scoob!",
      "genre_ids": [
        12,
        16,
        35,
        9648,
        10751
      ],
      "title": "Scoob!",
      "vote_average": 8,
      "overview": "In Scooby-Doo’s greatest adventure yet, see the never-before told story of how lifelong friends Scooby and Shaggy first met and how they joined forces with young detectives Fred, Velma, and Daphne to form the famous Mystery Inc. Now, with hundreds of cases solved, Scooby and the gang face their biggest, toughest mystery ever: an evil plot to unleash the ghost dog Cerberus upon the world. As they race to stop this global “dogpocalypse,” the gang discovers that Scooby has a secret legacy and an epic destiny greater than anyone ever imagined.",
      "release_date": "2020-05-15"
    },
    {
      "popularity": 89.173,
      "vote_count": 4267,
      "video": false,
      "poster_path": "/h4VB6m0RwcicVEZvzftYZyKXs6K.jpg",
      "id": 495764,
      "adult": false,
      "backdrop_path": "/kvbbK2rLGSJh9rf6gg1i1iVLYQS.jpg",
      "original_language": "en",
      "original_title": "Birds of Prey (and the Fantabulous Emancipation of One Harley Quinn)",
      "genre_ids": [
        28,
        35,
        80
      ],
      "title": "Birds of Prey (and the Fantabulous Emancipation of One Harley Quinn)",
      "vote_average": 7.2,
      "overview": "Harley Quinn joins forces with a singer, an assassin and a police detective to help a young girl who had a hit placed on her after she stole a rare diamond from a crime lord.",
      "release_date": "2020-02-05"
    },
    {
      "popularity": 88.253,
      "vote_count": 9439,
      "video": false,
      "poster_path": "/qa6HCwP4Z15l3hpsASz3auugEW6.jpg",
      "id": 920,
      "adult": false,
      "backdrop_path": "/sd4xN5xi8tKRPrJOWwNiZEile7f.jpg",
      "original_language": "en",
      "original_title": "Cars",
      "genre_ids": [
        12,
        16,
        35,
        10751
      ],
      "title": "Cars",
      "vote_average": 6.8,
      "overview": "Lightning McQueen, a hotshot rookie race car driven to succeed, discovers that life is about the journey, not the finish line, when he finds himself unexpectedly detoured in the sleepy Route 66 town of Radiator Springs. On route across the country to the big Piston Cup Championship in California to compete against two seasoned pros, McQueen gets to know the town's offbeat characters.",
      "release_date": "2006-06-08"
    },
    {
      "popularity": 87.071,
      "vote_count": 4202,
      "video": false,
      "poster_path": "/y95lQLnuNKdPAzw9F9Ab8kJ80c3.jpg",
      "id": 38700,
      "adult": false,
      "backdrop_path": "/upUy2QhMZEmtypPW3PdieKLAHxh.jpg",
      "original_language": "en",
      "original_title": "Bad Boys for Life",
      "genre_ids": [
        28,
        80,
        53
      ],
      "title": "Bad Boys for Life",
      "vote_average": 7.2,
      "overview": "Marcus and Mike are forced to confront new threats, career changes, and midlife crises as they join the newly created elite team AMMO of the Miami police department to take down the ruthless Armando Armas, the vicious leader of a Miami drug cartel.",
      "release_date": "2020-01-15"
    },
    {
      "popularity": 83.727,
      "vote_count": 12898,
      "video": false,
      "poster_path": "/udDclJoHjfjb8Ekgsd4FDteOkCU.jpg",
      "id": 475557,
      "adult": false,
      "backdrop_path": "/f5F4cRhQdUbyVbB5lTNCwUzD6BP.jpg",
      "original_language": "en",
      "original_title": "Joker",
      "genre_ids": [
        80,
        18,
        53
      ],
      "title": "Joker",
      "vote_average": 8.2,
      "overview": "During the 1980s, a failed stand-up comedian is driven insane and turns to a life of crime and chaos in Gotham City while becoming an infamous psychopathic crime figure.",
      "release_date": "2019-10-02"
    },
    {
      "popularity": 77.97,
      "vote_count": 7709,
      "video": false,
      "poster_path": "/7IiTTgloJzvGI1TAYymCfbfl3vT.jpg",
      "id": 496243,
      "adult": false,
      "backdrop_path": "/ApiBzeaa95TNYliSbQ8pJv4Fje7.jpg",
      "original_language": "ko",
      "original_title": "기생충",
      "genre_ids": [
        35,
        18,
        53
      ],
      "title": "Parasite",
      "vote_average": 8.5,
      "overview": "All unemployed, Ki-taek's family takes peculiar interest in the wealthy and glamorous Parks for their livelihood until they get entangled in an unexpected incident.",
      "release_date": "2019-05-30"
    },
    {
      "popularity": 76.157,
      "vote_count": 5986,
      "video": false,
      "poster_path": "/3iYQTLGoy7QnjcUYRJy4YrAgGvp.jpg",
      "id": 420817,
      "adult": false,
      "backdrop_path": "/v4yVTbbl8dE1UP2dWu5CLyaXOku.jpg",
      "original_language": "en",
      "original_title": "Aladdin",
      "genre_ids": [
        12,
        35,
        14,
        10749,
        10751
      ],
      "title": "Aladdin",
      "vote_average": 7.1,
      "overview": "A kindhearted street urchin named Aladdin embarks on a magical adventure after finding a lamp that releases a wisecracking genie while a power-hungry Grand Vizier vies for the same lamp that has the power to make their deepest wishes come true.",
      "release_date": "2019-05-22"
    },
    {
      "popularity": 73.465,
      "vote_count": 7461,
      "video": false,
      "poster_path": "/4q2NNj4S5dG2RLF9CpXsej7yXl.jpg",
      "id": 429617,
      "adult": false,
      "backdrop_path": "/5myQbDzw3l8K9yofUXRJ4UTVgam.jpg",
      "original_language": "en",
      "original_title": "Spider-Man: Far from Home",
      "genre_ids": [
        28,
        12,
        878
      ],
      "title": "Spider-Man: Far from Home",
      "vote_average": 7.5,
      "overview": "Peter Parker and his friends go on a summer trip to Europe. However, they will hardly be able to rest - Peter will have to agree to help Nick Fury uncover the mystery of creatures that cause natural disasters and destruction throughout the continent.",
      "release_date": "2019-06-28"
    },
    {
      "popularity": 73.178,
      "vote_count": 1325,
      "video": false,
      "poster_path": "/jtrhTYB7xSrJxR1vusu99nvnZ1g.jpg",
      "id": 522627,
      "adult": false,
      "backdrop_path": "/tintsaQ0WLzZsTMkTiqtMB3rfc8.jpg",
      "original_language": "en",
      "original_title": "The Gentlemen",
      "genre_ids": [
        28,
        35,
        80
      ],
      "title": "The Gentlemen",
      "vote_average": 7.7,
      "overview": "American expat Mickey Pearson has built a highly profitable marijuana empire in London. When word gets out that he’s looking to cash out of the business forever it triggers plots, schemes, bribery and blackmail in an attempt to steal his domain out from under him.",
      "release_date": "2020-01-01"
    },
    {
      "popularity": 72.812,
      "vote_count": 96,
      "video": false,
      "poster_path": "/niyXFhGIk4W2WTcX2Eod8vx2Mfe.jpg",
      "id": 686245,
      "adult": false,
      "backdrop_path": "/cVnCwyaKP7exbgaCMR9DJS4xleZ.jpg",
      "original_language": "en",
      "original_title": "Survive the Night",
      "genre_ids": [
        28,
        53
      ],
      "title": "Survive the Night",
      "vote_average": 5.9,
      "overview": "A disgraced doctor and his family are held hostage at their home by criminals on the run, when a robbery-gone-awry requires them to seek immediate medical attention.",
      "release_date": "2020-05-22"
    },
    {
      "popularity": 72.097,
      "vote_count": 46,
      "video": false,
      "poster_path": "/m2rJGjlesDKxugl7ypW8n3Mipjl.jpg",
      "id": 620883,
      "adult": false,
      "backdrop_path": "/prnq2ONhqo9Tga7dOMZKgFJMofs.jpg",
      "original_language": "es",
      "original_title": "La corazonada",
      "genre_ids": [
        80,
        53
      ],
      "title": "Intuition",
      "vote_average": 5.9,
      "overview": "Police officer Pipa works on her first big case while simultaneously investigating her boss, who is suspected of murder. The prequel to \"Perdida\".",
      "release_date": "2020-05-28"
    },
    {
      "popularity": 71.331,
      "vote_count": 5218,
      "video": false,
      "poster_path": "/iZf0KyrE25z1sage4SYFLCCrMi9.jpg",
      "id": 530915,
      "adult": false,
      "backdrop_path": "/cqa3sa4c4jevgnEJwq3CMF8UfTG.jpg",
      "original_language": "en",
      "original_title": "1917",
      "genre_ids": [
        28,
        18,
        36,
        10752
      ],
      "title": "1917",
      "vote_average": 7.9,
      "overview": "At the height of the First World War, two young British soldiers must cross enemy territory and deliver a message that will stop a deadly attack on hundreds of soldiers.",
      "release_date": "2019-12-25"
    },
    {
      "popularity": 69.992,
      "vote_count": 22386,
      "video": false,
      "poster_path": "/qJ2tW6WMUDux911r6m7haRef0WH.jpg",
      "id": 155,
      "adult": false,
      "backdrop_path": "/cfT29Im5VDvjE0RpyKOSdCKZal7.jpg",
      "original_language": "en",
      "original_title": "The Dark Knight",
      "genre_ids": [
        28,
        80,
        18,
        53
      ],
      "title": "The Dark Knight",
      "vote_average": 8.4,
      "overview": "Batman raises the stakes in his war on crime. With the help of Lt. Jim Gordon and District Attorney Harvey Dent, Batman sets out to dismantle the remaining criminal organizations that plague the streets. The partnership proves to be effective, but they soon find themselves prey to a reign of chaos unleashed by a rising criminal mastermind known to the terrified citizens of Gotham as the Joker.",
      "release_date": "2008-07-16"
    },
    {
      "popularity": 68.687,
      "vote_count": 25995,
      "video": false,
      "poster_path": "/9gk7adHYeDvHkCSEqAvQNLV5Uge.jpg",
      "id": 27205,
      "adult": false,
      "backdrop_path": "/s3TBrRGB1iav7gFOCNx3H31MoES.jpg",
      "original_language": "en",
      "original_title": "Inception",
      "genre_ids": [
        28,
        12,
        878
      ],
      "title": "Inception",
      "vote_average": 8.3,
      "overview": "Cobb, a skilled thief who commits corporate espionage by infiltrating the subconscious of his targets is offered a chance to regain his old life as payment for a task considered to be impossible: \"inception\", the implantation of another person's idea into a target's subconscious.",
      "release_date": "2010-07-15"
    },
    {
      "popularity": 65.125,
      "vote_count": 4794,
      "video": false,
      "poster_path": "/db32LaOibwEliAmSL2jjDF6oDdj.jpg",
      "id": 181812,
      "adult": false,
      "backdrop_path": "/jOzrELAzFxtMx2I4uDGHOotdfsS.jpg",
      "original_language": "en",
      "original_title": "Star Wars: The Rise of Skywalker",
      "genre_ids": [
        28,
        12,
        878
      ],
      "title": "Star Wars: The Rise of Skywalker",
      "vote_average": 6.5,
      "overview": "The surviving Resistance faces the First Order once again as the journey of Rey, Finn and Poe Dameron continues. With the power and knowledge of generations behind them, the final battle begins.",
      "release_date": "2019-12-18"
    }
  ]
}